{
  "SITE_DOMAIN": "localhost:8000",

  "SECRET_KEY": "",
  "DEBUG": "True",
  "DB_NAME": "",
  "DB_USER": "",
  "DB_PASSWORD": "",

  "EMAIL_HOST": "smtp.somedomain.com",
  "EMAIL_PORT": 465,
  "EMAIL_USE_SSL": "True",
  "EMAIL_HOST_USER": "",
  "EMAIL_HOST_PASSWORD": "",
  "DEFAULT_FROM_EMAIL": "Django Blog WebApp <blog@somedomain.com>"
}